<!doctype html>
<html>
 <head> 
  <title>NuWorlds</title> 
  <script src="/jquery/jquery.min.js"></script> 
  <script src="/semantic/semantic.min.js"></script> 
  <link rel="stylesheet" type="text/css" href="/semantic/semantic.min.css"> 
 </head> 
 <body> 
  <div class="ui inverted fixed menu"> 
   <div class="header item">
    NuWorlds
   </div> 
   <div class="right menu"> 
    <div class="ui simple dropdown item" data-test="profileMenu"> 
     <div class="text">
      Test User
     </div> 
     <i class="dropdown icon"></i> 
     <div class="menu"> 
      <a href="/profile" class="item" data-test="profile">Profile</a> 
      <div class="divider"></div> 
      <a href="/logout" class="item" data-test="logout">Log out</a> 
     </div> 
    </div> 
   </div> 
  </div> 
  <div class="ui fluid container" style="padding-top: 4em"> 
   <div class="ui container"> 
    <div class="ui breadcrumb"> 
     <a href="/" class="section">Home</a> 
     <i class="right angle icon divider"></i> 
     <div class="active section">
      Profile: Test User
     </div> 
    </div> 
    <h3 class="ui dividing header"> Test User </h3> 
    <div class="ui mobile reversed stackable grid container"> 
     <div class="four wide column"> 
      <div class="ui vertical pointing menu"> 
       <a href="/profile" class="active item" data-test="profileMenuEntry">Profile</a> 
       <a href="/profile/providers" class=" item" data-test="providersMenuEntry">Login Providers</a> 
      </div> 
     </div> 
     <div class="twelve wide column"> 
      <form method="POST" class="ui form error" id="profile-form"> 
       <div class="required field "> 
        <label for="profile-name">Name</label> 
        <input type="text" name="name" id="profile-name" placeholder="Name" value="New User" autofocus> 
       </div> 
       <div class="required field error"> 
        <label for="profile-email">Email Address</label> 
        <input type="text" name="email" id="profile-email" placeholder="Email Address" value=""> 
       </div> 
       <div class="field"> 
        <button class="ui primary button" type="submit">Save Changes</button> 
        <button class="ui reset negative button" type="button">Cancel</button> 
       </div> 
       <div class="ui error message"> 
        <ul class="list"> 
         <li> Please enter your Email Address </li> 
        </ul> 
       </div> 
      </form> 
      <script type="text/javascript">
        
        $('#profile-form')
            .form({
                fields: {
                    name: {
                        identifier: 'name',
                        rules: [
                            {
                                type   : 'empty',
                                prompt : 'Please enter your name'
                            }
                        ]
                    },
                    email: {
                        identifier: 'email',
                        rules: [
                            {
                                type   : 'empty',
                                prompt : 'Please enter your Email Address'
                            }
                        ]
                    },
                }
            });
    </script> 
     </div> 
    </div> 
   </div> 
  </div>   
 </body>
</html>