<!doctype html>
<html>
 <head> 
  <title>NuWorlds</title> 
  <script src="/jquery/jquery.min.js"></script> 
  <script src="/semantic/semantic.min.js"></script> 
  <link rel="stylesheet" type="text/css" href="/semantic/semantic.min.css"> 
 </head> 
 <body> 
  <div class="ui inverted fixed menu"> 
   <div class="header item">
    NuWorlds
   </div> 
   <div class="right menu"> 
   </div> 
  </div> 
  <div class="ui fluid container" style="padding-top: 4em"> 
   <div class="ui mobile reversed stackable grid container"> 
    <div class="twelve wide column"> 
     <div class="ui raised segment"> 
      <h3 class="ui dividing header"> Unauthenticated </h3> 
      <div class="ui">
        This page is only available when you are logged in. 
      </div> 
     </div> 
    </div> 
    <div class="four wide column"> 
     <div class="ui segment"> 
      <h3 class="ui dividing header"> Login / Register </h3> 
      <div class="ui list"> 
       <div class="item"> 
        <form action="/login/google_plus/start" method="post"> 
         <button class="ui google plus fluid button" type="submit"> <i class="google plus icon"></i> Log In with Google </button> 
        </form> 
       </div> 
      </div> 
     </div> 
    </div> 
   </div> 
  </div>   
 </body>
</html>